…
> head(pbmc.markers)
              p_val avg_log2FC pct.1 pct.2     p_val_adj cluster  gene
RPS12 1.273332e-143  0.7298951 1.000 0.991 1.746248e-139       0 RPS12
RPS6  6.817653e-143  0.6870694 1.000 0.995 9.349729e-139       0  RPS6
RPS27 4.661810e-141  0.7281575 0.999 0.992 6.393206e-137       0 RPS27
RPL32 8.158412e-138  0.6196246 0.999 0.995 1.118845e-133       0 RPL32
RPS14 5.177478e-130  0.6252832 1.000 0.994 7.100394e-126       0 RPS14
RPS25 3.244898e-123  0.7496479 0.997 0.975 4.450053e-119       0 RPS25


> pbmc.markers %>% group_by(cluster) %>% top_n(n = 3, wt = avg_log2FC)
# A tibble: 27 × 7
# Groups:   cluster [9]
       p_val avg_log2FC pct.1 pct.2 p_val_adj cluster gene  
       <dbl>      <dbl> <dbl> <dbl>     <dbl> <fct>   <chr> 
 1 3.75e-112       1.09 0.912 0.592 5.14e-108 0       LDHB  
 2 9.57e- 88       1.36 0.447 0.108 1.31e- 83 0       CCR7  
 3 1.35e- 51       1.08 0.342 0.103 1.86e- 47 0       LEF1  
 4 0               5.57 0.996 0.215 0         1       S100A9
 5 0               5.48 0.975 0.121 0         1       S100A8
 6 3.89e-268       4.55 1     0.516 5.34e-264 1       LYZ   
 7 1.06e- 86       1.27 0.981 0.643 1.45e- 82 2       LTB   
 8 3.44e- 59       1.22 0.651 0.245 4.71e- 55 2       CD2   
 9 2.97e- 58       1.23 0.42  0.111 4.07e- 54 2       AQP3  
10 0               4.31 0.936 0.041 0         3       CD79A 
# … with 17 more rows
#  Use `print(n = ...)` to see more rows
…
